cw,Ig,Qg,Idc,Qdc
400,-0.102,-0.514,0.2,0.176
500,-0.04,-0.26,0.22,0.185
600,0,-0.05,0.22,0.26
700,0,0,0.2,0.23
800,0,0,0.2,0.21
900,0,0,0.2,0.22
1000,0,0,0.22,0.237
1500,0,0,0.2,0.216
2000,0,0,0.181,0.185
2500,0,0,0.15,0.15
3000,0,0,0.13,0.13
3500,0,0,0.1,0.1
4000,0,0,0,0
