6.29745,24.1938
12.1888,21.8274
17.294,18.0532
21.2839,13.1147
23.9011,7.33048
24.9769,1.07346
24.4419,-5.2528
22.3306,-11.2403
18.7791,-16.5029
14.0165,-20.7011
8.34999,-23.5643
2.14493,-24.9078
-4.19846,-24.6449
-10.2711,-22.7927
-15.6813,-19.4704
-20.0802,-14.8925
-23.1841,-9.3541
-24.7927,-3.21245
-24.8025,3.13637
-23.2127,9.28293
-20.1258,14.8308
-15.741,19.4222
-10.341,22.761
-4.27405,24.6319
2.06851,24.9143
8.27766,23.5898
13.953,20.744
18.7284,16.5604
22.296,11.3087
24.4257,5.32776
24.9801,-0.996823
23.9235,-7.25712
21.324,-13.0494
17.3493,-18.0001
12.2557,-21.7899
6.37164,-24.1744
0.0766989,-24.9999
-6.22319,-24.2131
-12.1217,-21.8647
-17.2385,-18.1062
-21.2435,-13.18
-23.8785,-7.40377
-24.9735,-1.15008
-24.4579,5.17778
-22.365,11.1717
-18.8297,16.4452
-14.08,20.658
-8.42225,23.5386
-2.22134,24.9011
4.12283,24.6577
10.2011,22.8241
15.6215,19.5184
20.0344,14.954
23.1553,9.42519
24.7828,3.2885
24.812,-3.06027
23.241,-9.21167
20.1712,-14.769
15.8005,-19.3738
10.4107,-22.7292
4.3496,-24.6187
-1.99206,-24.9205
-8.20525,-23.6151
-13.8893,-20.7867
-18.6775,-16.6178
-22.2612,-11.3771
-24.4092,-5.40267
-24.9831,0.920181
-23.9457,7.18369
-21.3639,12.9839
-17.4044,17.9468
-12.3225,21.7522
-6.44578,24.1548
-0.153397,24.9995
6.14888,24.232
12.0546,21.9018
17.1829,18.159
21.203,13.2451
23.8557,7.477
24.9699,1.22669
24.4737,-5.10272
22.3992,-11.1031
18.88,-16.3873
14.1433,-20.6147
8.49442,-23.5127
2.29772,-24.8942
-4.04716,-24.6702
-10.131,-22.8552
-15.5615,-19.5663
-19.9884,-15.0154
-23.1262,-9.49618
-24.7726,-3.36452
-24.8213,2.98413
-23.2692,9.14032
-20.2164,14.707
-15.8598,19.3253
-10.4804,22.6972
-4.42511,24.6053
1.9156,24.9265
8.13276,23.6402
13.8254,20.8293
18.6264,16.675
22.2262,11.4453
24.3926,5.47753
24.9858,-0.843529
23.9676,-7.11019
21.4037,-12.9183
17.4594,-17.8933
12.3891,-21.7143
6.51985,-24.1349
0.230094,-24.9989
-6.0745,-24.2508
-11.9873,-21.9386
-17.1271,-18.2116
-21.1623,-13.3101
-23.8327,-7.55015
-24.966,-1.30329
-24.4892,5.02762
-22.4331,11.0343
-18.9302,16.3293
-14.2065,20.5712
-8.56652,23.4865
-2.37409,24.887
3.97145,24.6825
10.0609,22.8862
15.5014,19.6139
19.9423,15.0767
23.097,9.56709
24.7621,3.4405
24.8303,-2.90797
23.2971,-9.06889
20.2614,-14.6449
15.919,-19.2765
10.55,-22.6649
4.50057,-24.5916
-1.83911,-24.9323
-8.06019,-23.665
-13.7614,-20.8716
-18.5752,-16.7321
-22.191,-11.5135
-24.3756,-5.55234
-24.9882,0.76687
-23.9893,7.03662
-21.4432,12.8526
-17.5142,17.8396
-12.4557,21.6762
-6.59387,24.1147
-0.306788,24.9981
6.00008,24.2693
11.92,21.9753
17.0711,18.2641
21.1213,13.3749
23.8094,7.62323
24.9619,1.37988
24.5046,-4.95246
22.4669,-10.9654
18.9802,-16.2712
14.2695,-20.5276
8.63853,-23.4601
2.45043,-24.8796
-3.89571,-24.6946
-9.99061,-22.917
-15.4412,-19.6614
-19.8959,-15.1378
-23.0675,-9.6379
-24.7515,-3.51646
-24.8391,2.83177
-23.3248,8.99738
-20.3063,14.5827
-15.9781,19.2276
-10.6195,22.6324
-4.576,24.5776
1.76261,24.9378
7.98755,23.6896
13.6974,20.9137
18.5238,16.789
22.1556,11.5815
24.3585,5.6271
24.9905,-0.690204
24.0108,-6.96299
21.4825,-12.7867
17.5689,-17.7858
12.5221,-21.6378
6.66782,-24.0944
0.38348,-24.9971
-5.92559,-24.2876
-11.8525,-22.0118
-17.015,-18.3164
-21.0802,-13.4397
-23.7859,-7.69624
-24.9575,-1.45646
-24.5196,4.87726
-22.5004,10.8964
-19.0301,16.2129
-14.3324,20.4837
-8.71047,23.4335
-2.52675,24.872
3.81993,24.7064
9.92025,22.9475
15.3808,19.7087
19.8494,15.1987
23.0379,9.70863
24.7406,3.59238
24.8477,-2.75556
23.3523,-8.92577
20.3509,-14.5203
16.037,-19.1785
10.6889,-22.5997
4.65138,-24.5635
-1.6861,-24.9431
-7.91483,-23.714
-13.6331,-20.9556
-18.4722,-16.8457
-22.1199,-11.6494
-24.3411,-5.7018
-24.9925,0.613531
-24.032,6.8893
-21.5217,12.7208
-17.6234,17.7318
-12.5885,21.5993
-6.74171,24.0738
-0.460168,24.9958
5.85105,24.3057
11.7849,22.048
16.9588,18.3685
21.0389,13.5043
23.7622,7.76918
24.953,1.53302
24.5345,-4.80201
22.5337,-10.8273
19.0797,-16.1544
14.3952,-20.4396
8.78232,-23.4066
2.60304,-24.8641
-3.74411,-24.718
-9.8498,-22.9778
-15.3203,-19.7558
-19.8027,-15.2596
-23.008,-9.77926
-24.7294,-3.66826
-24.856,2.67931
-23.3796,8.85409
-20.3954,14.4578
-16.0958,19.1292
-10.7582,22.5668
-4.72672,24.5491
1.60957,24.9481
7.84204,23.7382
13.5688,20.9973
18.4204,16.9023
22.0841,11.7172
24.3235,5.77645
24.9942,-0.536852
24.053,-6.81553
21.5606,-12.6547
17.6777,-17.6777
12.6547,-21.5606
6.81553,-24.053
0.536852,-24.9942
-5.77645,-24.3235
-11.7172,-22.0841
-16.9023,-18.4204
-20.9973,-13.5688
-23.7382,-7.84204
-24.9481,-1.60957
-24.5491,4.72672
-22.5668,10.7582
-19.1292,16.0958
-14.4578,20.3954
-8.85409,23.3796
-2.67931,24.856
3.66826,24.7294
9.77926,23.008
15.2596,19.8027
19.7558,15.3203
22.9778,9.8498
24.718,3.74411
24.8641,-2.60304
23.4066,-8.78232
20.4396,-14.3952
16.1544,-19.0797
10.8273,-22.5337
4.80201,-24.5345
-1.53302,-24.953
-7.76918,-23.7622
-13.5043,-21.0389
-18.3685,-16.9588
-22.048,-11.7849
-24.3057,-5.85105
-24.9958,0.460168
-24.0738,6.74171
-21.5993,12.5885
-17.7318,17.6234
-12.7208,21.5217
-6.8893,24.032
-0.613531,24.9925
5.7018,24.3411
11.6494,22.1199
16.8457,18.4722
20.9556,13.6331
23.714,7.91483
24.9431,1.6861
24.5635,-4.65138
22.5997,-10.6889
19.1785,-16.037
14.5203,-20.3509
8.92577,-23.3523
2.75556,-24.8477
-3.59238,-24.7406
-9.70863,-23.0379
-15.1987,-19.8494
-19.7087,-15.3808
-22.9475,-9.92025
-24.7064,-3.81993
-24.872,2.52675
-23.4335,8.71047
-20.4837,14.3324
-16.2129,19.0301
-10.8964,22.5004
-4.87726,24.5196
1.45646,24.9575
7.69624,23.7859
13.4397,21.0802
18.3164,17.015
22.0118,11.8525
24.2876,5.92559
24.9971,-0.38348
24.0944,-6.66782
21.6378,-12.5221
17.7858,-17.5689
12.7867,-21.4825
6.96299,-24.0108
0.690204,-24.9905
-5.6271,-24.3585
-11.5815,-22.1556
-16.789,-18.5238
-20.9137,-13.6974
-23.6896,-7.98755
-24.9378,-1.76261
-24.5776,4.576
-22.6324,10.6195
-19.2276,15.9781
-14.5827,20.3063
-8.99738,23.3248
-2.83177,24.8391
3.51646,24.7515
9.6379,23.0675
15.1378,19.8959
19.6614,15.4412
22.917,9.99061
24.6946,3.89571
24.8796,-2.45043
23.4601,-8.63853
20.5276,-14.2695
16.2712,-18.9802
10.9654,-22.4669
4.95246,-24.5046
-1.37988,-24.9619
-7.62323,-23.8094
-13.3749,-21.1213
-18.2641,-17.0711
-21.9753,-11.92
-24.2693,-6.00008
-24.9981,0.306789
-24.1147,6.59387
-21.6762,12.4557
-17.8396,17.5142
-12.8526,21.4432
-7.03662,23.9893
-0.76687,24.9882
5.55234,24.3756
11.5135,22.191
16.7321,18.5752
20.8716,13.7614
23.665,8.06019
24.9323,1.83911
24.5916,-4.50057
22.6649,-10.55
19.2765,-15.919
14.6449,-20.2614
9.06889,-23.2971
2.90797,-24.8303
-3.4405,-24.7621
-9.56709,-23.097
-15.0767,-19.9423
-19.6139,-15.5014
-22.8862,-10.0609
-24.6825,-3.97145
-24.887,2.37409
-23.4865,8.56652
-20.5712,14.2065
-16.3293,18.9302
-11.0343,22.4331
-5.02762,24.4892
1.30329,24.966
7.55015,23.8327
13.3101,21.1623
18.2116,17.1271
21.9386,11.9873
24.2508,6.0745
24.9989,-0.230094
24.1349,-6.51985
21.7143,-12.3891
17.8933,-17.4594
12.9183,-21.4037
7.11019,-23.9676
0.843529,-24.9858
-5.47753,-24.3926
-11.4453,-22.2262
-16.675,-18.6264
-20.8293,-13.8254
-23.6402,-8.13276
-24.9265,-1.9156
-24.6053,4.42511
-22.6972,10.4804
-19.3253,15.8598
-14.707,20.2164
-9.14032,23.2692
-2.98413,24.8213
3.36452,24.7726
9.49618,23.1262
15.0154,19.9884
19.5663,15.5615
22.8552,10.131
24.6702,4.04716
24.8942,-2.29772
23.5127,-8.49442
20.6147,-14.1433
16.3873,-18.88
11.1031,-22.3992
5.10272,-24.4737
-1.22669,-24.9699
-7.477,-23.8557
-13.2451,-21.203
-18.159,-17.1829
-21.9018,-12.0546
-24.232,-6.14888
-24.9995,0.153397
-24.1548,6.44578
-21.7522,12.3225
-17.9468,17.4044
-12.9839,21.3639
-7.18369,23.9457
-0.92018,24.9831
5.40267,24.4092
11.3771,22.2612
16.6178,18.6775
20.7867,13.8893
23.6151,8.20525
24.9205,1.99206
24.6187,-4.3496
22.7292,-10.4107
19.3738,-15.8005
14.769,-20.1712
9.21167,-23.241
3.06027,-24.812
-3.2885,-24.7828
-9.42519,-23.1553
-14.954,-20.0344
-19.5184,-15.6215
-22.8241,-10.2011
-24.6577,-4.12283
-24.9011,2.22134
-23.5386,8.42225
-20.658,14.08
-16.4452,18.8297
-11.1717,22.365
-5.17778,24.4579
1.15008,24.9735
7.40377,23.8785
13.18,21.2435
18.1062,17.2385
21.8647,12.1217
24.2131,6.22319
24.9999,-0.0766989
24.1744,-6.37164
21.7899,-12.2557
18.0001,-17.3493
13.0494,-21.324
7.25712,-23.9235
0.996823,-24.9801
-5.32776,-24.4257
-11.3087,-22.296
-16.5604,-18.7284
-20.744,-13.953
-23.5898,-8.27766
-24.9143,-2.06851
-24.6319,4.27405
-22.761,10.341
-19.4222,15.741
-14.8308,20.1258
-9.28293,23.2127
-3.13637,24.8025
3.21245,24.7927
9.3541,23.1841
14.8925,20.0802
19.4704,15.6813
22.7927,10.2711
24.6449,4.19846
24.9078,-2.14493
23.5643,-8.34999
20.7011,-14.0165
16.5029,-18.7791
11.2403,-22.3306
5.2528,-24.4419
-1.07346,-24.9769
-7.33048,-23.9011
-13.1147,-21.2839
-18.0532,-17.294
-21.8274,-12.1888
-24.1938,-6.29745
-25,5.28828e-08
-24.1938,6.29745
-21.8274,12.1888
-18.0532,17.294
-13.1147,21.2839
-7.33048,23.9011
-1.07346,24.9769
5.2528,24.4419
11.2403,22.3306
16.5029,18.7791
20.7011,14.0165
23.5643,8.34999
24.9078,2.14493
24.6449,-4.19846
22.7927,-10.2711
19.4704,-15.6813
14.8925,-20.0802
9.3541,-23.1841
3.21245,-24.7927
-3.13637,-24.8025
-9.28293,-23.2127
-14.8308,-20.1258
-19.4222,-15.741
-22.761,-10.341
-24.6319,-4.27405
-24.9143,2.06851
-23.5898,8.27766
-20.744,13.953
-16.5604,18.7284
-11.3087,22.296
-5.32776,24.4257
0.996823,24.9801
7.25712,23.9235
13.0494,21.324
18.0001,17.3493
21.7899,12.2557
24.1744,6.37164
24.9999,0.0766989
24.2131,-6.22319
21.8647,-12.1217
18.1062,-17.2385
13.18,-21.2435
7.40377,-23.8785
1.15008,-24.9735
-5.17778,-24.4579
-11.1717,-22.365
-16.4452,-18.8297
-20.658,-14.08
-23.5386,-8.42225
-24.9011,-2.22134
-24.6577,4.12283
-22.8241,10.2011
-19.5184,15.6215
-14.954,20.0344
-9.42519,23.1553
-3.2885,24.7828
3.06027,24.812
9.21167,23.241
14.769,20.1712
19.3738,15.8005
22.7292,10.4107
24.6187,4.3496
24.9205,-1.99206
23.6151,-8.20525
20.7867,-13.8893
16.6178,-18.6775
11.3771,-22.2612
5.40267,-24.4092
-0.920181,-24.9831
-7.18369,-23.9457
-12.9839,-21.3639
-17.9468,-17.4044
-21.7522,-12.3225
-24.1548,-6.44578
-24.9995,-0.153397
-24.232,6.14888
-21.9018,12.0546
-18.159,17.1829
-13.2451,21.203
-7.477,23.8557
-1.22669,24.9699
5.10272,24.4737
11.1031,22.3992
16.3873,18.88
20.6147,14.1433
23.5127,8.49442
24.8942,2.29772
24.6702,-4.04716
22.8552,-10.131
19.5663,-15.5615
15.0154,-19.9884
9.49618,-23.1262
3.36452,-24.7726
-2.98413,-24.8213
-9.14032,-23.2692
-14.707,-20.2164
-19.3253,-15.8598
-22.6972,-10.4804
-24.6053,-4.42511
-24.9265,1.9156
-23.6402,8.13276
-20.8293,13.8254
-16.675,18.6264
-11.4453,22.2262
-5.47753,24.3926
0.843529,24.9858
7.11019,23.9676
12.9183,21.4037
17.8933,17.4594
21.7143,12.3891
24.1349,6.51985
24.9989,0.230094
24.2508,-6.0745
21.9386,-11.9873
18.2116,-17.1271
13.3101,-21.1623
7.55015,-23.8327
1.30329,-24.966
-5.02762,-24.4892
-11.0343,-22.4331
-16.3293,-18.9302
-20.5712,-14.2065
-23.4865,-8.56652
-24.887,-2.37409
-24.6825,3.97145
-22.8862,10.0609
-19.6139,15.5014
-15.0767,19.9423
-9.56709,23.097
-3.4405,24.7621
2.90797,24.8303
9.06889,23.2971
14.6449,20.2614
19.2765,15.919
22.6649,10.55
24.5916,4.50057
24.9323,-1.83911
23.665,-8.06019
20.8716,-13.7614
16.7321,-18.5752
11.5135,-22.191
5.55234,-24.3756
-0.76687,-24.9882
-7.03662,-23.9893
-12.8526,-21.4432
-17.8396,-17.5142
-21.6762,-12.4557
-24.1147,-6.59387
-24.9981,-0.306788
-24.2693,6.00008
-21.9753,11.92
-18.2641,17.0711
-13.3749,21.1213
-7.62323,23.8094
-1.37988,24.9619
4.95246,24.5046
10.9654,22.4669
16.2712,18.9802
20.5276,14.2695
23.4601,8.63853
24.8796,2.45043
24.6946,-3.89571
22.917,-9.99061
19.6614,-15.4412
15.1378,-19.8959
9.6379,-23.0675
3.51646,-24.7515
-2.83177,-24.8391
-8.99738,-23.3248
-14.5827,-20.3063
-19.2276,-15.9781
-22.6324,-10.6195
-24.5776,-4.576
-24.9378,1.76261
-23.6896,7.98755
-20.9137,13.6974
-16.789,18.5238
-11.5815,22.1556
-5.6271,24.3585
0.690204,24.9905
6.96299,24.0108
12.7867,21.4825
17.7858,17.5689
21.6378,12.5221
24.0944,6.66782
24.9971,0.38348
24.2876,-5.92559
22.0118,-11.8525
18.3164,-17.015
13.4397,-21.0802
7.69624,-23.7859
1.45646,-24.9575
-4.87726,-24.5196
-10.8964,-22.5004
-16.2129,-19.0301
-20.4837,-14.3324
-23.4335,-8.71047
-24.872,-2.52675
-24.7064,3.81993
-22.9475,9.92025
-19.7087,15.3808
-15.1987,19.8494
-9.70863,23.0379
-3.59238,24.7406
2.75556,24.8477
8.92577,23.3523
14.5203,20.3509
19.1785,16.037
22.5997,10.6889
24.5635,4.65138
24.9431,-1.6861
23.714,-7.91483
20.9556,-13.6331
16.8457,-18.4722
11.6494,-22.1199
5.7018,-24.3411
-0.613531,-24.9925
-6.8893,-24.032
-12.7208,-21.5217
-17.7318,-17.6234
-21.5993,-12.5885
-24.0738,-6.74171
-24.9958,-0.460168
-24.3057,5.85105
-22.048,11.7849
-18.3685,16.9588
-13.5043,21.0389
-7.76918,23.7622
-1.53302,24.953
4.80201,24.5345
10.8273,22.5337
16.1544,19.0797
20.4396,14.3952
23.4066,8.78232
24.8641,2.60304
24.718,-3.74411
22.9778,-9.8498
19.7558,-15.3203
15.2596,-19.8027
9.77926,-23.008
3.66826,-24.7294
-2.67931,-24.856
-8.85409,-23.3796
-14.4578,-20.3954
-19.1292,-16.0958
-22.5668,-10.7582
-24.5491,-4.72672
-24.9481,1.60957
-23.7382,7.84204
-20.9973,13.5688
-16.9023,18.4204
-11.7172,22.0841
-5.77645,24.3235
0.536852,24.9942
6.81553,24.053
12.6547,21.5606
17.6777,17.6777
21.5606,12.6547
24.053,6.81553
24.9942,0.536852
24.3235,-5.77645
22.0841,-11.7172
18.4204,-16.9023
13.5688,-20.9973
7.84204,-23.7382
1.60957,-24.9481
-4.72672,-24.5491
-10.7582,-22.5668
-16.0958,-19.1292
-20.3954,-14.4578
-23.3796,-8.85409
-24.856,-2.67931
-24.7294,3.66826
-23.008,9.77926
-19.8027,15.2596
-15.3203,19.7558
-9.8498,22.9778
-3.74411,24.718
2.60304,24.8641
8.78232,23.4066
14.3952,20.4396
19.0797,16.1544
22.5337,10.8273
24.5345,4.80201
24.953,-1.53302
23.7622,-7.76918
21.0389,-13.5043
16.9588,-18.3685
11.7849,-22.048
5.85105,-24.3057
-0.460168,-24.9958
-6.74171,-24.0738
-12.5885,-21.5993
-17.6234,-17.7318
-21.5217,-12.7208
-24.032,-6.8893
-24.9925,-0.613531
-24.3411,5.7018
-22.1199,11.6494
-18.4722,16.8457
-13.6331,20.9556
-7.91483,23.714
-1.6861,24.9431
4.65138,24.5635
10.6889,22.5997
16.037,19.1785
20.3509,14.5203
23.3523,8.92577
24.8477,2.75556
24.7406,-3.59238
23.0379,-9.70863
19.8494,-15.1987
15.3808,-19.7087
9.92025,-22.9475
3.81993,-24.7064
-2.52675,-24.872
-8.71047,-23.4335
-14.3324,-20.4837
-19.0301,-16.2129
-22.5004,-10.8964
-24.5196,-4.87726
-24.9575,1.45646
-23.7859,7.69624
-21.0802,13.4397
-17.015,18.3164
-11.8525,22.0118
-5.92559,24.2876
0.38348,24.9971
6.66782,24.0944
12.5221,21.6378
17.5689,17.7858
21.4825,12.7867
24.0108,6.96299
24.9905,0.690204
24.3585,-5.6271
22.1556,-11.5815
18.5238,-16.789
13.6974,-20.9137
7.98755,-23.6896
1.76261,-24.9378
-4.576,-24.5776
-10.6195,-22.6324
-15.9781,-19.2276
-20.3063,-14.5827
-23.3248,-8.99738
-24.8391,-2.83177
-24.7515,3.51646
-23.0675,9.6379
-19.8959,15.1378
-15.4412,19.6614
-9.99061,22.917
-3.89571,24.6946
2.45043,24.8796
8.63853,23.4601
14.2695,20.5276
18.9802,16.2712
22.4669,10.9654
24.5046,4.95246
24.9619,-1.37988
23.8094,-7.62323
21.1213,-13.3749
17.0711,-18.2641
11.92,-21.9753
6.00008,-24.2693
-0.306789,-24.9981
-6.59387,-24.1147
-12.4557,-21.6762
-17.5142,-17.8396
-21.4432,-12.8526
-23.9893,-7.03662
-24.9882,-0.76687
-24.3756,5.55234
-22.191,11.5135
-18.5752,16.7321
-13.7614,20.8716
-8.06019,23.665
-1.83911,24.9323
4.50057,24.5916
10.55,22.6649
15.919,19.2765
20.2614,14.6449
23.2971,9.06889
24.8303,2.90797
24.7621,-3.4405
23.097,-9.56709
19.9423,-15.0767
15.5014,-19.6139
10.0609,-22.8862
3.97145,-24.6825
-2.37409,-24.887
-8.56652,-23.4865
-14.2065,-20.5712
-18.9302,-16.3293
-22.4331,-11.0343
-24.4892,-5.02762
-24.966,1.30329
-23.8327,7.55015
-21.1623,13.3101
-17.1271,18.2116
-11.9873,21.9386
-6.0745,24.2508
0.230094,24.9989
6.51985,24.1349
12.3891,21.7143
17.4594,17.8933
21.4037,12.9183
23.9676,7.11019
24.9858,0.843529
24.3926,-5.47753
22.2262,-11.4453
18.6264,-16.675
13.8254,-20.8293
8.13276,-23.6402
1.9156,-24.9265
-4.42511,-24.6053
-10.4804,-22.6972
-15.8598,-19.3253
-20.2164,-14.707
-23.2692,-9.14032
-24.8213,-2.98413
-24.7726,3.36452
-23.1262,9.49618
-19.9884,15.0154
-15.5615,19.5663
-10.131,22.8552
-4.04716,24.6702
2.29772,24.8942
8.49442,23.5127
14.1433,20.6147
18.88,16.3873
22.3992,11.1031
24.4737,5.10272
24.9699,-1.22669
23.8557,-7.477
21.203,-13.2451
17.1829,-18.159
12.0546,-21.9018
6.14888,-24.232
-0.153397,-24.9995
-6.44578,-24.1548
-12.3225,-21.7522
-17.4044,-17.9468
-21.3639,-12.9839
-23.9457,-7.18369
-24.9831,-0.92018
-24.4092,5.40267
-22.2612,11.3771
-18.6775,16.6178
-13.8893,20.7867
-8.20525,23.6151
-1.99206,24.9205
4.3496,24.6187
10.4107,22.7292
15.8005,19.3738
20.1712,14.769
23.241,9.21167
24.812,3.06027
24.7828,-3.2885
23.1553,-9.42519
20.0344,-14.954
15.6215,-19.5184
10.2011,-22.8241
4.12283,-24.6577
-2.22134,-24.9011
-8.42225,-23.5386
-14.08,-20.658
-18.8297,-16.4452
-22.365,-11.1717
-24.4579,-5.17778
-24.9735,1.15008
-23.8785,7.40377
-21.2435,13.18
-17.2385,18.1062
-12.1217,21.8647
-6.22319,24.2131
0.0766989,24.9999
6.37164,24.1744
12.2557,21.7899
17.3493,18.0001
21.324,13.0494
23.9235,7.25712
24.9801,0.996823
24.4257,-5.32776
22.296,-11.3087
18.7284,-16.5604
13.953,-20.744
8.27766,-23.5898
2.06851,-24.9143
-4.27405,-24.6319
-10.341,-22.761
-15.741,-19.4222
-20.1258,-14.8308
-23.2127,-9.28293
-24.8025,-3.13637
-24.7927,3.21245
-23.1841,9.3541
-20.0802,14.8925
-15.6813,19.4704
-10.2711,22.7927
-4.19846,24.6449
2.14493,24.9078
8.34999,23.5643
14.0165,20.7011
18.7791,16.5029
22.3306,11.2403
24.4419,5.2528
24.9769,-1.07346
23.9011,-7.33048
21.2839,-13.1147
17.294,-18.0532
12.1888,-21.8274
6.29745,-24.1938
-3.52552e-08,-25
-6.29745,-24.1938
-12.1888,-21.8274
-17.294,-18.0532
-21.2839,-13.1147
-23.9011,-7.33048
-24.9769,-1.07346
-24.4419,5.2528
-22.3306,11.2403
-18.7791,16.5029
-14.0165,20.7011
-8.34999,23.5643
-2.14493,24.9078
4.19846,24.6449
10.2711,22.7927
15.6813,19.4704
20.0802,14.8925
23.1841,9.3541
24.7927,3.21245
24.8025,-3.13637
23.2127,-9.28293
20.1258,-14.8308
15.741,-19.4222
10.341,-22.761
4.27405,-24.6319
-2.06851,-24.9143
-8.27766,-23.5898
-13.953,-20.744
-18.7284,-16.5604
-22.296,-11.3087
-24.4257,-5.32776
-24.9801,0.996823
-23.9235,7.25712
-21.324,13.0494
-17.3493,18.0001
-12.2557,21.7899
-6.37164,24.1744
-0.0766988,24.9999
6.22319,24.2131
12.1217,21.8647
17.2385,18.1062
21.2435,13.18
23.8785,7.40377
24.9735,1.15008
24.4579,-5.17778
22.365,-11.1717
18.8297,-16.4452
14.08,-20.658
8.42225,-23.5386
2.22134,-24.9011
-4.12283,-24.6577
-10.2011,-22.8241
-15.6215,-19.5184
-20.0344,-14.954
-23.1553,-9.42519
-24.7828,-3.2885
-24.812,3.06027
-23.241,9.21167
-20.1712,14.769
-15.8005,19.3738
-10.4107,22.7292
-4.3496,24.6187
1.99206,24.9205
8.20525,23.6151
13.8893,20.7867
18.6775,16.6178
22.2612,11.3771
24.4092,5.40267
24.9831,-0.920181
23.9457,-7.18369
21.3639,-12.9839
17.4044,-17.9468
12.3225,-21.7522
6.44578,-24.1548
0.153397,-24.9995
-6.14888,-24.232
-12.0546,-21.9018
-17.1829,-18.159
-21.203,-13.2451
-23.8557,-7.477
-24.9699,-1.22669
-24.4737,5.10272
-22.3992,11.1031
-18.88,16.3873
-14.1433,20.6147
-8.49442,23.5127
-2.29772,24.8942
4.04716,24.6702
10.131,22.8552
15.5615,19.5663
19.9884,15.0154
23.1262,9.49618
24.7726,3.36452
24.8213,-2.98413
23.2692,-9.14032
20.2164,-14.707
15.8598,-19.3253
10.4804,-22.6972
4.42511,-24.6053
-1.9156,-24.9265
-8.13276,-23.6402
-13.8254,-20.8293
-18.6264,-16.675
-22.2262,-11.4453
-24.3926,-5.47753
-24.9858,0.843529
-23.9676,7.11019
-21.4037,12.9183
-17.4594,17.8933
-12.3891,21.7143
-6.51985,24.1349
-0.230094,24.9989
6.0745,24.2508
11.9873,21.9386
17.1271,18.2116
21.1623,13.3101
23.8327,7.55015
24.966,1.30329
24.4892,-5.02762
22.4331,-11.0343
18.9302,-16.3293
14.2065,-20.5712
8.56652,-23.4865
2.37409,-24.887
-3.97145,-24.6825
-10.0609,-22.8862
-15.5014,-19.6139
-19.9423,-15.0767
-23.097,-9.56709
-24.7621,-3.4405
-24.8303,2.90797
-23.2971,9.06889
-20.2614,14.6449
-15.919,19.2765
-10.55,22.6649
-4.50057,24.5916
1.83911,24.9323
8.06019,23.665
13.7614,20.8716
18.5752,16.7321
22.191,11.5135
24.3756,5.55234
24.9882,-0.76687
23.9893,-7.03662
21.4432,-12.8526
17.5142,-17.8396
12.4557,-21.6762
6.59387,-24.1147
0.306788,-24.9981
-6.00008,-24.2693
-11.92,-21.9753
-17.0711,-18.2641
-21.1213,-13.3749
-23.8094,-7.62323
-24.9619,-1.37988
-24.5046,4.95246
-22.4669,10.9654
-18.9802,16.2712
-14.2695,20.5276
-8.63853,23.4601
-2.45043,24.8796
3.89571,24.6946
9.99061,22.917
15.4412,19.6614
19.8959,15.1378
23.0675,9.6379
24.7515,3.51646
24.8391,-2.83177
23.3248,-8.99738
20.3063,-14.5827
15.9781,-19.2276
10.6195,-22.6324
4.576,-24.5776
-1.76261,-24.9378
-7.98755,-23.6896
-13.6974,-20.9137
-18.5238,-16.789
-22.1556,-11.5815
-24.3585,-5.6271
-24.9905,0.690204
-24.0108,6.96299
-21.4825,12.7867
-17.5689,17.7858
-12.5221,21.6378
-6.66782,24.0944
-0.38348,24.9971
5.92559,24.2876
11.8525,22.0118
17.015,18.3164
21.0802,13.4397
23.7859,7.69624
24.9575,1.45646
24.5196,-4.87726
22.5004,-10.8964
19.0301,-16.2129
14.3324,-20.4837
8.71047,-23.4335
2.52675,-24.872
-3.81993,-24.7064
-9.92025,-22.9475
-15.3808,-19.7087
-19.8494,-15.1987
-23.0379,-9.70863
-24.7406,-3.59238
-24.8477,2.75556
-23.3523,8.92577
-20.3509,14.5203
-16.037,19.1785
-10.6889,22.5997
-4.65138,24.5635
1.6861,24.9431
7.91483,23.714
13.6331,20.9556
18.4722,16.8457
22.1199,11.6494
24.3411,5.7018
24.9925,-0.613531
24.032,-6.8893
21.5217,-12.7208
17.6234,-17.7318
12.5885,-21.5993
6.74171,-24.0738
0.460168,-24.9958
-5.85105,-24.3057
-11.7849,-22.048
-16.9588,-18.3685
-21.0389,-13.5043
-23.7622,-7.76918
-24.953,-1.53302
-24.5345,4.80201
-22.5337,10.8273
-19.0797,16.1544
-14.3952,20.4396
-8.78232,23.4066
-2.60304,24.8641
3.74411,24.718
9.8498,22.9778
15.3203,19.7558
19.8027,15.2596
23.008,9.77926
24.7294,3.66826
24.856,-2.67931
23.3796,-8.85409
20.3954,-14.4578
16.0958,-19.1292
10.7582,-22.5668
4.72672,-24.5491
-1.60957,-24.9481
-7.84204,-23.7382
-13.5688,-20.9973
-18.4204,-16.9023
-22.0841,-11.7172
-24.3235,-5.77645
-24.9942,0.536852
-24.053,6.81553
-21.5606,12.6547
-17.6777,17.6777
-12.6547,21.5606
-6.81553,24.053
-0.536852,24.9942
5.77645,24.3235
11.7172,22.0841
16.9023,18.4204
20.9973,13.5688
23.7382,7.84204
24.9481,1.60957
24.5491,-4.72672
22.5668,-10.7582
19.1292,-16.0958
14.4578,-20.3954
8.85409,-23.3796
2.67931,-24.856
-3.66826,-24.7294
-9.77926,-23.008
-15.2596,-19.8027
-19.7558,-15.3203
-22.9778,-9.8498
-24.718,-3.74411
-24.8641,2.60304
-23.4066,8.78232
-20.4396,14.3952
-16.1544,19.0797
-10.8273,22.5337
-4.80201,24.5345
1.53302,24.953
7.76918,23.7622
13.5043,21.0389
18.3685,16.9588
22.048,11.7849
24.3057,5.85105
24.9958,-0.460168
24.0738,-6.74171
21.5993,-12.5885
17.7318,-17.6234
12.7208,-21.5217
6.8893,-24.032
0.613531,-24.9925
-5.7018,-24.3411
-11.6494,-22.1199
-16.8457,-18.4722
-20.9556,-13.6331
-23.714,-7.91483
-24.9431,-1.6861
-24.5635,4.65138
-22.5997,10.6889
-19.1785,16.037
-14.5203,20.3509
-8.92577,23.3523
-2.75556,24.8477
3.59238,24.7406
9.70863,23.0379
15.1987,19.8494
19.7087,15.3808
22.9475,9.92025
24.7064,3.81993
24.872,-2.52675
23.4335,-8.71047
20.4837,-14.3324
16.2129,-19.0301
10.8964,-22.5004
4.87726,-24.5196
-1.45646,-24.9575
-7.69624,-23.7859
-13.4397,-21.0802
-18.3164,-17.015
-22.0118,-11.8525
-24.2876,-5.92559
-24.9971,0.38348
-24.0944,6.66782
-21.6378,12.5221
-17.7858,17.5689
-12.7867,21.4825
-6.96299,24.0108
-0.690204,24.9905
5.6271,24.3585
11.5815,22.1556
16.789,18.5238
20.9137,13.6974
23.6896,7.98755
24.9378,1.76261
24.5776,-4.576
22.6324,-10.6195
19.2276,-15.9781
14.5827,-20.3063
8.99738,-23.3248
2.83177,-24.8391
-3.51646,-24.7515
-9.6379,-23.0675
-15.1378,-19.8959
-19.6614,-15.4412
-22.917,-9.99061
-24.6946,-3.89571
-24.8796,2.45043
-23.4601,8.63853
-20.5276,14.2695
-16.2712,18.9802
-10.9654,22.4669
-4.95246,24.5046
1.37988,24.9619
7.62323,23.8094
13.3749,21.1213
18.2641,17.0711
21.9753,11.92
24.2693,6.00008
24.9981,-0.306788
24.1147,-6.59387
21.6762,-12.4557
17.8396,-17.5142
12.8526,-21.4432
7.03662,-23.9893
0.76687,-24.9882
-5.55234,-24.3756
-11.5135,-22.191
-16.7321,-18.5752
-20.8716,-13.7614
-23.665,-8.06019
-24.9323,-1.83911
-24.5916,4.50057
-22.6649,10.55
-19.2765,15.919
-14.6449,20.2614
-9.06889,23.2971
-2.90797,24.8303
3.4405,24.7621
9.56709,23.097
15.0767,19.9423
19.6139,15.5014
22.8862,10.0609
24.6825,3.97145
24.887,-2.37409
23.4865,-8.56652
20.5712,-14.2065
16.3293,-18.9302
11.0343,-22.4331
5.02762,-24.4892
-1.30329,-24.966
-7.55015,-23.8327
-13.3101,-21.1623
-18.2116,-17.1271
-21.9386,-11.9873
-24.2508,-6.0745
-24.9989,0.230094
-24.1349,6.51985
-21.7143,12.3891
-17.8933,17.4594
-12.9183,21.4037
-7.11019,23.9676
-0.843529,24.9858
5.47753,24.3926
11.4453,22.2262
16.675,18.6264
20.8293,13.8254
23.6402,8.13276
24.9265,1.9156
24.6053,-4.42511
22.6972,-10.4804
19.3253,-15.8598
14.707,-20.2164
9.14032,-23.2692
2.98413,-24.8213
-3.36452,-24.7726
-9.49618,-23.1262
-15.0154,-19.9884
-19.5663,-15.5615
-22.8552,-10.131
-24.6702,-4.04716
-24.8942,2.29772
-23.5127,8.49442
-20.6147,14.1433
-16.3873,18.88
-11.1031,22.3992
-5.10272,24.4737
1.22669,24.9699
7.477,23.8557
13.2451,21.203
18.159,17.1829
21.9018,12.0546
24.232,6.14888
24.9995,-0.153397
24.1548,-6.44578
21.7522,-12.3225
17.9468,-17.4044
12.9839,-21.3639
7.18369,-23.9457
0.920181,-24.9831
-5.40267,-24.4092
-11.3771,-22.2612
-16.6178,-18.6775
-20.7867,-13.8893
-23.6151,-8.20525
-24.9205,-1.99206
-24.6187,4.3496
-22.7292,10.4107
-19.3738,15.8005
-14.769,20.1712
-9.21167,23.241
-3.06027,24.812
3.2885,24.7828
9.42519,23.1553
14.954,20.0344
19.5184,15.6215
22.8241,10.2011
24.6577,4.12283
24.9011,-2.22134
23.5386,-8.42225
20.658,-14.08
16.4452,-18.8297
11.1717,-22.365
5.17778,-24.4579
-1.15008,-24.9735
-7.40377,-23.8785
-13.18,-21.2435
-18.1062,-17.2385
-21.8647,-12.1217
-24.2131,-6.22319
-24.9999,0.076699
-24.1744,6.37164
-21.7899,12.2557
-18.0001,17.3493
-13.0494,21.324
-7.25712,23.9235
-0.996823,24.9801
5.32776,24.4257
11.3087,22.296
16.5604,18.7284
20.744,13.953
23.5898,8.27766
24.9143,2.06851
24.6319,-4.27405
22.761,-10.341
19.4222,-15.741
14.8308,-20.1258
9.28293,-23.2127
3.13637,-24.8025
-3.21245,-24.7927
-9.3541,-23.1841
-14.8925,-20.0802
-19.4704,-15.6813
-22.7927,-10.2711
-24.6449,-4.19846
-24.9078,2.14493
-23.5643,8.34999
-20.7011,14.0165
-16.5029,18.7791
-11.2403,22.3306
-5.2528,24.4419
1.07346,24.9769
7.33048,23.9011
13.1147,21.2839
18.0532,17.294
21.8274,12.1888
24.1938,6.29745
25,-1.76276e-08
24.1938,-6.29745
21.8274,-12.1888
18.0532,-17.294
13.1147,-21.2839
7.33048,-23.9011
1.07346,-24.9769
-5.2528,-24.4419
-11.2403,-22.3306
-16.5029,-18.7791
-20.7011,-14.0165
-23.5643,-8.34999
-24.9078,-2.14493
-24.6449,4.19846
-22.7927,10.2711
-19.4704,15.6813
-14.8925,20.0802
-9.3541,23.1841
-3.21245,24.7927
3.13637,24.8025
9.28293,23.2127
14.8308,20.1258
19.4222,15.741
22.761,10.341
24.6319,4.27405
24.9143,-2.06851
23.5898,-8.27766
20.744,-13.953
16.5604,-18.7284
11.3087,-22.296
5.32776,-24.4257
-0.996823,-24.9801
-7.25712,-23.9235
-13.0494,-21.324
-18.0001,-17.3493
-21.7899,-12.2557
-24.1744,-6.37164
-24.9999,-0.0766989
-24.2131,6.22319
-21.8647,12.1217
-18.1062,17.2385
-13.18,21.2435
-7.40377,23.8785
-1.15008,24.9735
5.17778,24.4579
11.1717,22.365
16.4452,18.8297
20.658,14.08
23.5386,8.42225
24.9011,2.22134
24.6577,-4.12283
22.8241,-10.2011
19.5184,-15.6215
14.954,-20.0344
9.42519,-23.1553
3.2885,-24.7828
-3.06027,-24.812
-9.21167,-23.241
-14.769,-20.1712
-19.3738,-15.8005
-22.7292,-10.4107
-24.6187,-4.3496
-24.9205,1.99206
-23.6151,8.20525
-20.7867,13.8893
-16.6178,18.6775
-11.3771,22.2612
-5.40267,24.4092
0.920181,24.9831
7.18369,23.9457
12.9839,21.3639
17.9468,17.4044
21.7522,12.3225
24.1548,6.44578
24.9995,0.153397
24.232,-6.14888
21.9018,-12.0546
18.159,-17.1829
13.2451,-21.203
7.477,-23.8557
1.22669,-24.9699
-5.10272,-24.4737
-11.1031,-22.3992
-16.3873,-18.88
-20.6147,-14.1433
-23.5127,-8.49442
-24.8942,-2.29772
-24.6702,4.04716
-22.8552,10.131
-19.5663,15.5615
-15.0154,19.9884
-9.49618,23.1262
-3.36452,24.7726
2.98413,24.8213
9.14032,23.2692
14.707,20.2164
19.3253,15.8598
22.6972,10.4804
24.6053,4.42511
24.9265,-1.9156
23.6402,-8.13276
20.8293,-13.8254
16.675,-18.6264
11.4453,-22.2262
5.47753,-24.3926
-0.843529,-24.9858
-7.11019,-23.9676
-12.9183,-21.4037
-17.8933,-17.4594
-21.7143,-12.3891
-24.1349,-6.51985
-24.9989,-0.230094
-24.2508,6.0745
-21.9386,11.9873
-18.2116,17.1271
-13.3101,21.1623
-7.55015,23.8327
-1.30329,24.966
5.02762,24.4892
11.0343,22.4331
16.3293,18.9302
20.5712,14.2065
23.4865,8.56652
24.887,2.37409
24.6825,-3.97145
22.8862,-10.0609
19.6139,-15.5014
15.0767,-19.9423
9.56709,-23.097
3.4405,-24.7621
-2.90797,-24.8303
-9.06889,-23.2971
-14.6449,-20.2614
-19.2765,-15.919
-22.6649,-10.55
-24.5916,-4.50057
-24.9323,1.83911
-23.665,8.06019
-20.8716,13.7614
-16.7321,18.5752
-11.5135,22.191
-5.55234,24.3756
0.76687,24.9882
7.03662,23.9893
12.8526,21.4432
17.8396,17.5142
21.6762,12.4557
24.1147,6.59387
24.9981,0.306788
24.2693,-6.00008
21.9753,-11.92
18.2641,-17.0711
13.3749,-21.1213
7.62323,-23.8094
1.37988,-24.9619
-4.95246,-24.5046
-10.9654,-22.4669
-16.2712,-18.9802
-20.5276,-14.2695
-23.4601,-8.63853
-24.8796,-2.45043
-24.6946,3.89571
-22.917,9.99061
-19.6614,15.4412
-15.1378,19.8959
-9.6379,23.0675
-3.51646,24.7515
2.83177,24.8391
8.99738,23.3248
14.5827,20.3063
19.2276,15.9781
22.6324,10.6195
24.5776,4.576
24.9378,-1.76261
23.6896,-7.98755
20.9137,-13.6974
16.789,-18.5238
11.5815,-22.1556
5.6271,-24.3585
-0.690204,-24.9905
-6.96299,-24.0108
-12.7867,-21.4825
-17.7858,-17.5689
-21.6378,-12.5221
-24.0944,-6.66782
-24.9971,-0.38348
-24.2876,5.92559
-22.0118,11.8525
-18.3164,17.015
-13.4397,21.0802
-7.69624,23.7859
-1.45646,24.9575
4.87726,24.5196
10.8964,22.5004
16.2129,19.0301
20.4837,14.3324
23.4335,8.71047
24.872,2.52675
24.7064,-3.81993
22.9475,-9.92025
19.7087,-15.3808
15.1987,-19.8494
9.70863,-23.0379
3.59238,-24.7406
-2.75556,-24.8477
-8.92577,-23.3523
-14.5203,-20.3509
-19.1785,-16.037
-22.5997,-10.6889
-24.5635,-4.65138
-24.9431,1.6861
-23.714,7.91483
-20.9556,13.6331
-16.8457,18.4722
-11.6494,22.1199
-5.7018,24.3411
0.613531,24.9925
6.8893,24.032
12.7208,21.5217
17.7318,17.6234
21.5993,12.5885
24.0738,6.74171
24.9958,0.460168
24.3057,-5.85105
22.048,-11.7849
18.3685,-16.9588
13.5043,-21.0389
7.76918,-23.7622
1.53302,-24.953
-4.80201,-24.5345
-10.8273,-22.5337
-16.1544,-19.0797
-20.4396,-14.3952
-23.4066,-8.78232
-24.8641,-2.60304
-24.718,3.74411
-22.9778,9.8498
-19.7558,15.3203
-15.2596,19.8027
-9.77926,23.008
-3.66826,24.7294
2.67931,24.856
8.85409,23.3796
14.4578,20.3954
19.1292,16.0958
22.5668,10.7582
24.5491,4.72672
24.9481,-1.60957
23.7382,-7.84204
20.9973,-13.5688
16.9023,-18.4204
11.7172,-22.0841
5.77645,-24.3235
-0.536852,-24.9942
-6.81553,-24.053
-12.6547,-21.5606
-17.6777,-17.6777
-21.5606,-12.6547
-24.053,-6.81553
-24.9942,-0.536852
-24.3235,5.77645
-22.0841,11.7172
-18.4204,16.9023
-13.5688,20.9973
-7.84204,23.7382
-1.60957,24.9481
4.72672,24.5491
10.7582,22.5668
16.0958,19.1292
20.3954,14.4578
23.3796,8.85409
24.856,2.67931
24.7294,-3.66826
23.008,-9.77926
19.8027,-15.2596
15.3203,-19.7558
9.8498,-22.9778
3.74411,-24.718
-2.60304,-24.8641
-8.78232,-23.4066
-14.3952,-20.4396
-19.0797,-16.1544
-22.5337,-10.8273
-24.5345,-4.80201
-24.953,1.53302
-23.7622,7.76918
-21.0389,13.5043
-16.9588,18.3685
-11.7849,22.048
-5.85105,24.3057
0.460168,24.9958
6.74171,24.0738
12.5885,21.5993
17.6234,17.7318
21.5217,12.7208
24.032,6.8893
24.9925,0.613531
24.3411,-5.7018
22.1199,-11.6494
18.4722,-16.8457
13.6331,-20.9556
7.91483,-23.714
1.6861,-24.9431
-4.65138,-24.5635
-10.6889,-22.5997
-16.037,-19.1785
-20.3509,-14.5203
-23.3523,-8.92577
-24.8477,-2.75556
-24.7406,3.59238
-23.0379,9.70863
-19.8494,15.1987
-15.3808,19.7087
-9.92025,22.9475
-3.81993,24.7064
2.52675,24.872
8.71047,23.4335
14.3324,20.4837
19.0301,16.2129
22.5004,10.8964
24.5196,4.87726
24.9575,-1.45646
23.7859,-7.69624
21.0802,-13.4397
17.015,-18.3164
11.8525,-22.0118
5.92559,-24.2876
-0.38348,-24.9971
-6.66782,-24.0944
-12.5221,-21.6378
-17.5689,-17.7858
-21.4825,-12.7867
-24.0108,-6.96299
-24.9905,-0.690204
-24.3585,5.6271
-22.1556,11.5815
-18.5238,16.789
-13.6974,20.9137
-7.98755,23.6896
-1.76261,24.9378
4.576,24.5776
10.6195,22.6324
15.9781,19.2276
20.3063,14.5827
23.3248,8.99738
24.8391,2.83177
24.7515,-3.51646
23.0675,-9.6379
19.8959,-15.1378
15.4412,-19.6614
9.99061,-22.917
3.89571,-24.6946
-2.45043,-24.8796
-8.63853,-23.4601
-14.2695,-20.5276
-18.9802,-16.2712
-22.4669,-10.9654
-24.5046,-4.95246
-24.9619,1.37988
-23.8094,7.62323
-21.1213,13.3749
-17.0711,18.2641
-11.92,21.9753
-6.00008,24.2693
0.306788,24.9981
6.59387,24.1147
12.4557,21.6762
17.5142,17.8396
21.4432,12.8526
23.9893,7.03662
24.9882,0.76687
24.3756,-5.55234
22.191,-11.5135
18.5752,-16.7321
13.7614,-20.8716
8.06019,-23.665
1.83911,-24.9323
-4.50057,-24.5916
-10.55,-22.6649
-15.919,-19.2765
-20.2614,-14.6449
-23.2971,-9.06889
-24.8303,-2.90797
-24.7621,3.4405
-23.097,9.56709
-19.9423,15.0767
-15.5014,19.6139
-10.0609,22.8862
-3.97145,24.6825
2.37409,24.887
8.56652,23.4865
14.2065,20.5712
18.9302,16.3293
22.4331,11.0343
24.4892,5.02762
24.966,-1.30329
23.8327,-7.55015
21.1623,-13.3101
17.1271,-18.2116
11.9873,-21.9386
6.0745,-24.2508
-0.230094,-24.9989
-6.51985,-24.1349
-12.3891,-21.7143
-17.4594,-17.8933
-21.4037,-12.9183
-23.9676,-7.11019
-24.9858,-0.843529
-24.3926,5.47753
-22.2262,11.4453
-18.6264,16.675
-13.8254,20.8293
-8.13276,23.6402
-1.9156,24.9265
4.42511,24.6053
10.4804,22.6972
15.8598,19.3253
20.2164,14.707
23.2692,9.14032
24.8213,2.98413
24.7726,-3.36452
23.1262,-9.49618
19.9884,-15.0154
15.5615,-19.5663
10.131,-22.8552
4.04716,-24.6702
-2.29772,-24.8942
-8.49442,-23.5127
-14.1433,-20.6147
-18.88,-16.3873
-22.3992,-11.1031
-24.4737,-5.10272
-24.9699,1.22669
-23.8557,7.477
-21.203,13.2451
-17.1829,18.159
-12.0546,21.9018
-6.14888,24.232
0.153397,24.9995
6.44578,24.1548
12.3225,21.7522
17.4044,17.9468
21.3639,12.9839
23.9457,7.18369
24.9831,0.920181
24.4092,-5.40267
22.2612,-11.3771
18.6775,-16.6178
13.8893,-20.7867
8.20525,-23.6151
1.99206,-24.9205
-4.3496,-24.6187
-10.4107,-22.7292
-15.8005,-19.3738
-20.1712,-14.769
-23.241,-9.21167
-24.812,-3.06027
-24.7828,3.2885
-23.1553,9.42519
-20.0344,14.954
-15.6215,19.5184
-10.2011,22.8241
-4.12283,24.6577
2.22134,24.9011
8.42225,23.5386
14.08,20.658
18.8297,16.4452
22.365,11.1717
24.4579,5.17778
24.9735,-1.15008
23.8785,-7.40377
21.2435,-13.18
17.2385,-18.1062
12.1217,-21.8647
6.22319,-24.2131
-0.076699,-24.9999
-6.37164,-24.1744
-12.2557,-21.7899
-17.3493,-18.0001
-21.324,-13.0494
-23.9235,-7.25712
-24.9801,-0.996823
-24.4257,5.32776
-22.296,11.3087
-18.7284,16.5604
-13.953,20.744
-8.27766,23.5898
-2.06851,24.9143
4.27405,24.6319
10.341,22.761
15.741,19.4222
20.1258,14.8308
23.2127,9.28293
24.8025,3.13637
24.7927,-3.21245
23.1841,-9.3541
20.0802,-14.8925
15.6813,-19.4704
10.2711,-22.7927
4.19846,-24.6449
-2.14493,-24.9078
-8.34999,-23.5643
-14.0165,-20.7011
-18.7791,-16.5029
-22.3306,-11.2403
-24.4419,-5.2528
-24.9769,1.07346
-23.9011,7.33048
-21.2839,13.1147
-17.294,18.0532
-12.1888,21.8274
-6.29745,24.1938
0,25
6.29745,24.1938
12.1888,21.8274
17.294,18.0532
21.2839,13.1147
23.9011,7.33048
24.9769,1.07346
24.4419,-5.2528
22.3306,-11.2403
18.7791,-16.5029
14.0165,-20.7011
8.34999,-23.5643
2.14493,-24.9078
-4.19846,-24.6449
-10.2711,-22.7927
-15.6813,-19.4704
-20.0802,-14.8925
-23.1841,-9.3541
-24.7927,-3.21245
-24.8025,3.13637
-23.2127,9.28293
-20.1258,14.8308
-15.741,19.4222
-10.341,22.761
-4.27405,24.6319
2.06851,24.9143
8.27766,23.5898
13.953,20.744
18.7284,16.5604
22.296,11.3087
24.4257,5.32776
24.9801,-0.996823
23.9235,-7.25712
21.324,-13.0494
17.3493,-18.0001
12.2557,-21.7899
6.37164,-24.1744
0.0766989,-24.9999
-6.22319,-24.2131
-12.1217,-21.8647
-17.2385,-18.1062
-21.2435,-13.18
-23.8785,-7.40377
-24.9735,-1.15008
-24.4579,5.17778
-22.365,11.1717
-18.8297,16.4452
-14.08,20.658
-8.42225,23.5386
-2.22134,24.9011
4.12283,24.6577
10.2011,22.8241
15.6215,19.5184
20.0344,14.954
23.1553,9.42519
24.7828,3.2885
24.812,-3.06027
23.241,-9.21167
20.1712,-14.769
15.8005,-19.3738
10.4107,-22.7292
4.3496,-24.6187
-1.99206,-24.9205
-8.20525,-23.6151
-13.8893,-20.7867
-18.6775,-16.6178
-22.2612,-11.3771
-24.4092,-5.40267
-24.9831,0.920181
-23.9457,7.18369
-21.3639,12.9839
-17.4044,17.9468
-12.3225,21.7522
-6.44578,24.1548
-0.153397,24.9995
6.14888,24.232
12.0546,21.9018
17.1829,18.159
21.203,13.2451
23.8557,7.477
24.9699,1.22669
24.4737,-5.10272
22.3992,-11.1031
18.88,-16.3873
14.1433,-20.6147
8.49442,-23.5127
2.29772,-24.8942
-4.04716,-24.6702
-10.131,-22.8552
-15.5615,-19.5663
-19.9884,-15.0154
-23.1262,-9.49618
-24.7726,-3.36452
-24.8213,2.98413
-23.2692,9.14032
-20.2164,14.707
-15.8598,19.3253
-10.4804,22.6972
-4.42511,24.6053
1.9156,24.9265
8.13276,23.6402
13.8254,20.8293
18.6264,16.675
22.2262,11.4453
24.3926,5.47753
24.9858,-0.843529
23.9676,-7.11019
21.4037,-12.9183
17.4594,-17.8933
12.3891,-21.7143
6.51985,-24.1349
0.230094,-24.9989
-6.0745,-24.2508
-11.9873,-21.9386
-17.1271,-18.2116
-21.1623,-13.3101
-23.8327,-7.55015
-24.966,-1.30329
-24.4892,5.02762
-22.4331,11.0343
-18.9302,16.3293
-14.2065,20.5712
-8.56652,23.4865
-2.37409,24.887
3.97145,24.6825
10.0609,22.8862
15.5014,19.6139
19.9423,15.0767
23.097,9.56709
24.7621,3.4405
24.8303,-2.90797
23.2971,-9.06889
20.2614,-14.6449
15.919,-19.2765
10.55,-22.6649
4.50057,-24.5916
-1.83911,-24.9323
-8.06019,-23.665
-13.7614,-20.8716
-18.5752,-16.7321
-22.191,-11.5135
-24.3756,-5.55234
-24.9882,0.76687
-23.9893,7.03662
-21.4432,12.8526
-17.5142,17.8396
-12.4557,21.6762
-6.59387,24.1147
-0.306788,24.9981
6.00008,24.2693
11.92,21.9753
17.0711,18.2641
21.1213,13.3749
23.8094,7.62323
24.9619,1.37988
24.5046,-4.95246
22.4669,-10.9654
18.9802,-16.2712
14.2695,-20.5276
8.63853,-23.4601
2.45043,-24.8796
-3.89571,-24.6946
-9.99061,-22.917
-15.4412,-19.6614
-19.8959,-15.1378
-23.0675,-9.6379
-24.7515,-3.51646
-24.8391,2.83177
-23.3248,8.99738
-20.3063,14.5827
-15.9781,19.2276
-10.6195,22.6324
-4.576,24.5776
1.76261,24.9378
7.98755,23.6896
13.6974,20.9137
18.5238,16.789
22.1556,11.5815
24.3585,5.6271
24.9905,-0.690204
24.0108,-6.96299
21.4825,-12.7867
17.5689,-17.7858
12.5221,-21.6378
6.66782,-24.0944
0.38348,-24.9971
-5.92559,-24.2876
-11.8525,-22.0118
-17.015,-18.3164
-21.0802,-13.4397
-23.7859,-7.69624
-24.9575,-1.45646
-24.5196,4.87726
-22.5004,10.8964
-19.0301,16.2129
-14.3324,20.4837
-8.71047,23.4335
-2.52675,24.872
3.81993,24.7064
9.92025,22.9475
15.3808,19.7087
19.8494,15.1987
23.0379,9.70863
24.7406,3.59238
24.8477,-2.75556
23.3523,-8.92577
20.3509,-14.5203
16.037,-19.1785
10.6889,-22.5997
4.65138,-24.5635
-1.6861,-24.9431
-7.91483,-23.714
-13.6331,-20.9556
-18.4722,-16.8457
-22.1199,-11.6494
-24.3411,-5.7018
-24.9925,0.613531
-24.032,6.8893
-21.5217,12.7208
-17.6234,17.7318
-12.5885,21.5993
-6.74171,24.0738
-0.460168,24.9958
5.85105,24.3057
11.7849,22.048
16.9588,18.3685
21.0389,13.5043
23.7622,7.76918
24.953,1.53302
24.5345,-4.80201
22.5337,-10.8273
19.0797,-16.1544
14.3952,-20.4396
8.78232,-23.4066
2.60304,-24.8641
-3.74411,-24.718
-9.8498,-22.9778
-15.3203,-19.7558
-19.8027,-15.2596
-23.008,-9.77926
-24.7294,-3.66826
-24.856,2.67931
-23.3796,8.85409
-20.3954,14.4578
-16.0958,19.1292
-10.7582,22.5668
-4.72672,24.5491
1.60957,24.9481
7.84204,23.7382
13.5688,20.9973
18.4204,16.9023
22.0841,11.7172
24.3235,5.77645
24.9942,-0.536852
24.053,-6.81553
21.5606,-12.6547
17.6777,-17.6777
12.6547,-21.5606
6.81553,-24.053
0.536852,-24.9942
-5.77645,-24.3235
-11.7172,-22.0841
-16.9023,-18.4204
-20.9973,-13.5688
-23.7382,-7.84204
-24.9481,-1.60957
-24.5491,4.72672
-22.5668,10.7582
-19.1292,16.0958
-14.4578,20.3954
-8.85409,23.3796
-2.67931,24.856
3.66826,24.7294
9.77926,23.008
15.2596,19.8027
19.7558,15.3203
22.9778,9.8498
24.718,3.74411
24.8641,-2.60304
23.4066,-8.78232
20.4396,-14.3952
16.1544,-19.0797
10.8273,-22.5337
4.80201,-24.5345
-1.53302,-24.953
-7.76918,-23.7622
-13.5043,-21.0389
-18.3685,-16.9588
-22.048,-11.7849
-24.3057,-5.85105
-24.9958,0.460168
-24.0738,6.74171
-21.5993,12.5885
-17.7318,17.6234
-12.7208,21.5217
-6.8893,24.032
-0.613531,24.9925
5.7018,24.3411
11.6494,22.1199
16.8457,18.4722
20.9556,13.6331
23.714,7.91483
24.9431,1.6861
24.5635,-4.65138
22.5997,-10.6889
19.1785,-16.037
14.5203,-20.3509
8.92577,-23.3523
2.75556,-24.8477
-3.59238,-24.7406
-9.70863,-23.0379
-15.1987,-19.8494
-19.7087,-15.3808
-22.9475,-9.92025
-24.7064,-3.81993
-24.872,2.52675
-23.4335,8.71047
-20.4837,14.3324
-16.2129,19.0301
-10.8964,22.5004
-4.87726,24.5196
1.45646,24.9575
7.69624,23.7859
13.4397,21.0802
18.3164,17.015
22.0118,11.8525
24.2876,5.92559
24.9971,-0.38348
24.0944,-6.66782
21.6378,-12.5221
17.7858,-17.5689
12.7867,-21.4825
6.96299,-24.0108
0.690204,-24.9905
-5.6271,-24.3585
-11.5815,-22.1556
-16.789,-18.5238
-20.9137,-13.6974
-23.6896,-7.98755
-24.9378,-1.76261
-24.5776,4.576
-22.6324,10.6195
-19.2276,15.9781
-14.5827,20.3063
-8.99738,23.3248
-2.83177,24.8391
3.51646,24.7515
9.6379,23.0675
15.1378,19.8959
19.6614,15.4412
22.917,9.99061
24.6946,3.89571
24.8796,-2.45043
23.4601,-8.63853
20.5276,-14.2695
16.2712,-18.9802
10.9654,-22.4669
4.95246,-24.5046
-1.37988,-24.9619
-7.62323,-23.8094
-13.3749,-21.1213
-18.2641,-17.0711
-21.9753,-11.92
-24.2693,-6.00008
-24.9981,0.306789
-24.1147,6.59387
-21.6762,12.4557
-17.8396,17.5142
-12.8526,21.4432
-7.03662,23.9893
-0.76687,24.9882
5.55234,24.3756
11.5135,22.191
16.7321,18.5752
20.8716,13.7614
23.665,8.06019
24.9323,1.83911
24.5916,-4.50057
22.6649,-10.55
19.2765,-15.919
14.6449,-20.2614
9.06889,-23.2971
2.90797,-24.8303
-3.4405,-24.7621
-9.56709,-23.097
-15.0767,-19.9423
-19.6139,-15.5014
-22.8862,-10.0609
-24.6825,-3.97145
-24.887,2.37409
-23.4865,8.56652
-20.5712,14.2065
-16.3293,18.9302
-11.0343,22.4331
-5.02762,24.4892
1.30329,24.966
7.55015,23.8327
13.3101,21.1623
18.2116,17.1271
21.9386,11.9873
24.2508,6.0745
24.9989,-0.230094
24.1349,-6.51985
21.7143,-12.3891
17.8933,-17.4594
12.9183,-21.4037
7.11019,-23.9676
0.843529,-24.9858
-5.47753,-24.3926
-11.4453,-22.2262
-16.675,-18.6264
-20.8293,-13.8254
-23.6402,-8.13276
-24.9265,-1.9156
-24.6053,4.42511
-22.6972,10.4804
-19.3253,15.8598
-14.707,20.2164
-9.14032,23.2692
-2.98413,24.8213
3.36452,24.7726
9.49618,23.1262
15.0154,19.9884
19.5663,15.5615
22.8552,10.131
24.6702,4.04716
24.8942,-2.29772
23.5127,-8.49442
20.6147,-14.1433
16.3873,-18.88
11.1031,-22.3992
5.10272,-24.4737
-1.22669,-24.9699
-7.477,-23.8557
-13.2451,-21.203
-18.159,-17.1829
-21.9018,-12.0546
-24.232,-6.14888
-24.9995,0.153397
-24.1548,6.44578
-21.7522,12.3225
-17.9468,17.4044
-12.9839,21.3639
-7.18369,23.9457
-0.92018,24.9831
5.40267,24.4092
11.3771,22.2612
16.6178,18.6775
20.7867,13.8893
23.6151,8.20525
24.9205,1.99206
24.6187,-4.3496
22.7292,-10.4107
19.3738,-15.8005
14.769,-20.1712
9.21167,-23.241
3.06027,-24.812
-3.2885,-24.7828
-9.42519,-23.1553
-14.954,-20.0344
-19.5184,-15.6215
-22.8241,-10.2011
-24.6577,-4.12283
-24.9011,2.22134
-23.5386,8.42225
-20.658,14.08
-16.4452,18.8297
-11.1717,22.365
-5.17778,24.4579
1.15008,24.9735
7.40377,23.8785
13.18,21.2435
18.1062,17.2385
21.8647,12.1217
24.2131,6.22319
24.9999,-0.0766989
24.1744,-6.37164
21.7899,-12.2557
18.0001,-17.3493
13.0494,-21.324
7.25712,-23.9235
0.996823,-24.9801
-5.32776,-24.4257
-11.3087,-22.296
-16.5604,-18.7284
-20.744,-13.953
-23.5898,-8.27766
-24.9143,-2.06851
-24.6319,4.27405
-22.761,10.341
-19.4222,15.741
-14.8308,20.1258
-9.28293,23.2127
-3.13637,24.8025
3.21245,24.7927
9.3541,23.1841
14.8925,20.0802
19.4704,15.6813
22.7927,10.2711
24.6449,4.19846
24.9078,-2.14493
23.5643,-8.34999
20.7011,-14.0165
16.5029,-18.7791
11.2403,-22.3306
5.2528,-24.4419
-1.07346,-24.9769
-7.33048,-23.9011
-13.1147,-21.2839
-18.0532,-17.294
-21.8274,-12.1888
-24.1938,-6.29745
-25,5.28828e-08
-24.1938,6.29745
-21.8274,12.1888
-18.0532,17.294
-13.1147,21.2839
-7.33048,23.9011
-1.07346,24.9769
5.2528,24.4419
11.2403,22.3306
16.5029,18.7791
20.7011,14.0165
23.5643,8.34999
24.9078,2.14493
24.6449,-4.19846
22.7927,-10.2711
19.4704,-15.6813
14.8925,-20.0802
9.3541,-23.1841
3.21245,-24.7927
-3.13637,-24.8025
-9.28293,-23.2127
-14.8308,-20.1258
-19.4222,-15.741
-22.761,-10.341
-24.6319,-4.27405
-24.9143,2.06851
-23.5898,8.27766
-20.744,13.953
-16.5604,18.7284
-11.3087,22.296
-5.32776,24.4257
0.996823,24.9801
7.25712,23.9235
13.0494,21.324
18.0001,17.3493
21.7899,12.2557
24.1744,6.37164
24.9999,0.0766989
24.2131,-6.22319
21.8647,-12.1217
18.1062,-17.2385
13.18,-21.2435
7.40377,-23.8785
1.15008,-24.9735
-5.17778,-24.4579
-11.1717,-22.365
-16.4452,-18.8297
-20.658,-14.08
-23.5386,-8.42225
-24.9011,-2.22134
-24.6577,4.12283
-22.8241,10.2011
-19.5184,15.6215
-14.954,20.0344
-9.42519,23.1553
-3.2885,24.7828
3.06027,24.812
9.21167,23.241
14.769,20.1712
19.3738,15.8005
22.7292,10.4107
24.6187,4.3496
24.9205,-1.99206
23.6151,-8.20525
20.7867,-13.8893
16.6178,-18.6775
11.3771,-22.2612
5.40267,-24.4092
-0.920181,-24.9831
-7.18369,-23.9457
-12.9839,-21.3639
-17.9468,-17.4044
-21.7522,-12.3225
-24.1548,-6.44578
-24.9995,-0.153397
-24.232,6.14888
-21.9018,12.0546
-18.159,17.1829
-13.2451,21.203
-7.477,23.8557
-1.22669,24.9699
5.10272,24.4737
11.1031,22.3992
16.3873,18.88
20.6147,14.1433
23.5127,8.49442
24.8942,2.29772
24.6702,-4.04716
22.8552,-10.131
19.5663,-15.5615
15.0154,-19.9884
9.49618,-23.1262
3.36452,-24.7726
-2.98413,-24.8213
-9.14032,-23.2692
-14.707,-20.2164
-19.3253,-15.8598
-22.6972,-10.4804
-24.6053,-4.42511
-24.9265,1.9156
-23.6402,8.13276
-20.8293,13.8254
-16.675,18.6264
-11.4453,22.2262
-5.47753,24.3926
0.843529,24.9858
7.11019,23.9676
12.9183,21.4037
17.8933,17.4594
21.7143,12.3891
24.1349,6.51985
24.9989,0.230094
24.2508,-6.0745
21.9386,-11.9873
18.2116,-17.1271
13.3101,-21.1623
7.55015,-23.8327
1.30329,-24.966
-5.02762,-24.4892
-11.0343,-22.4331
-16.3293,-18.9302
-20.5712,-14.2065
-23.4865,-8.56652
-24.887,-2.37409
-24.6825,3.97145
-22.8862,10.0609
-19.6139,15.5014
-15.0767,19.9423
-9.56709,23.097
-3.4405,24.7621
2.90797,24.8303
9.06889,23.2971
14.6449,20.2614
19.2765,15.919
22.6649,10.55
24.5916,4.50057
24.9323,-1.83911
23.665,-8.06019
20.8716,-13.7614
16.7321,-18.5752
11.5135,-22.191
5.55234,-24.3756
-0.76687,-24.9882
-7.03662,-23.9893
-12.8526,-21.4432
-17.8396,-17.5142
-21.6762,-12.4557
-24.1147,-6.59387
-24.9981,-0.306788
-24.2693,6.00008
-21.9753,11.92
-18.2641,17.0711
-13.3749,21.1213
-7.62323,23.8094
-1.37988,24.9619
4.95246,24.5046
10.9654,22.4669
16.2712,18.9802
20.5276,14.2695
23.4601,8.63853
24.8796,2.45043
24.6946,-3.89571
22.917,-9.99061
19.6614,-15.4412
15.1378,-19.8959
9.6379,-23.0675
3.51646,-24.7515
-2.83177,-24.8391
-8.99738,-23.3248
-14.5827,-20.3063
-19.2276,-15.9781
-22.6324,-10.6195
-24.5776,-4.576
-24.9378,1.76261
-23.6896,7.98755
-20.9137,13.6974
-16.789,18.5238
-11.5815,22.1556
-5.6271,24.3585
0.690204,24.9905
6.96299,24.0108
12.7867,21.4825
17.7858,17.5689
21.6378,12.5221
24.0944,6.66782
24.9971,0.38348
24.2876,-5.92559
22.0118,-11.8525
18.3164,-17.015
13.4397,-21.0802
7.69624,-23.7859
1.45646,-24.9575
-4.87726,-24.5196
-10.8964,-22.5004
-16.2129,-19.0301
-20.4837,-14.3324
-23.4335,-8.71047
-24.872,-2.52675
-24.7064,3.81993
-22.9475,9.92025
-19.7087,15.3808
-15.1987,19.8494
-9.70863,23.0379
-3.59238,24.7406
2.75556,24.8477
8.92577,23.3523
14.5203,20.3509
19.1785,16.037
22.5997,10.6889
24.5635,4.65138
24.9431,-1.6861
23.714,-7.91483
20.9556,-13.6331
16.8457,-18.4722
11.6494,-22.1199
5.7018,-24.3411
-0.613531,-24.9925
-6.8893,-24.032
-12.7208,-21.5217
-17.7318,-17.6234
-21.5993,-12.5885
-24.0738,-6.74171
-24.9958,-0.460168
-24.3057,5.85105
-22.048,11.7849
-18.3685,16.9588
-13.5043,21.0389
-7.76918,23.7622
-1.53302,24.953
4.80201,24.5345
10.8273,22.5337
16.1544,19.0797
20.4396,14.3952
23.4066,8.78232
24.8641,2.60304
24.718,-3.74411
22.9778,-9.8498
19.7558,-15.3203
15.2596,-19.8027
9.77926,-23.008
3.66826,-24.7294
-2.67931,-24.856
-8.85409,-23.3796
-14.4578,-20.3954
-19.1292,-16.0958
-22.5668,-10.7582
-24.5491,-4.72672
-24.9481,1.60957
-23.7382,7.84204
-20.9973,13.5688
-16.9023,18.4204
-11.7172,22.0841
-5.77645,24.3235
0.536852,24.9942
6.81553,24.053
12.6547,21.5606
17.6777,17.6777
21.5606,12.6547
24.053,6.81553
24.9942,0.536852
24.3235,-5.77645
22.0841,-11.7172
18.4204,-16.9023
13.5688,-20.9973
7.84204,-23.7382
1.60957,-24.9481
-4.72672,-24.5491
-10.7582,-22.5668
-16.0958,-19.1292
-20.3954,-14.4578
-23.3796,-8.85409
-24.856,-2.67931
-24.7294,3.66826
-23.008,9.77926
-19.8027,15.2596
-15.3203,19.7558
-9.8498,22.9778
-3.74411,24.718
2.60304,24.8641
8.78232,23.4066
14.3952,20.4396
19.0797,16.1544
22.5337,10.8273
24.5345,4.80201
24.953,-1.53302
23.7622,-7.76918
21.0389,-13.5043
16.9588,-18.3685
11.7849,-22.048
5.85105,-24.3057
-0.460168,-24.9958
-6.74171,-24.0738
-12.5885,-21.5993
-17.6234,-17.7318
-21.5217,-12.7208
-24.032,-6.8893
-24.9925,-0.613531
-24.3411,5.7018
-22.1199,11.6494
-18.4722,16.8457
-13.6331,20.9556
-7.91483,23.714
-1.6861,24.9431
4.65138,24.5635
10.6889,22.5997
16.037,19.1785
20.3509,14.5203
23.3523,8.92577
24.8477,2.75556
24.7406,-3.59238
23.0379,-9.70863
19.8494,-15.1987
15.3808,-19.7087
9.92025,-22.9475
3.81993,-24.7064
-2.52675,-24.872
-8.71047,-23.4335
-14.3324,-20.4837
-19.0301,-16.2129
-22.5004,-10.8964
-24.5196,-4.87726
-24.9575,1.45646
-23.7859,7.69624
-21.0802,13.4397
-17.015,18.3164
-11.8525,22.0118
-5.92559,24.2876
0.38348,24.9971
6.66782,24.0944
12.5221,21.6378
17.5689,17.7858
21.4825,12.7867
24.0108,6.96299
24.9905,0.690204
24.3585,-5.6271
22.1556,-11.5815
18.5238,-16.789
13.6974,-20.9137
7.98755,-23.6896
1.76261,-24.9378
-4.576,-24.5776
-10.6195,-22.6324
-15.9781,-19.2276
-20.3063,-14.5827
-23.3248,-8.99738
-24.8391,-2.83177
-24.7515,3.51646
-23.0675,9.6379
-19.8959,15.1378
-15.4412,19.6614
-9.99061,22.917
-3.89571,24.6946
2.45043,24.8796
8.63853,23.4601
14.2695,20.5276
18.9802,16.2712
22.4669,10.9654
24.5046,4.95246
24.9619,-1.37988
23.8094,-7.62323
21.1213,-13.3749
17.0711,-18.2641
11.92,-21.9753
6.00008,-24.2693
-0.306789,-24.9981
-6.59387,-24.1147
-12.4557,-21.6762
-17.5142,-17.8396
-21.4432,-12.8526
-23.9893,-7.03662
-24.9882,-0.76687
-24.3756,5.55234
-22.191,11.5135
-18.5752,16.7321
-13.7614,20.8716
-8.06019,23.665
-1.83911,24.9323
4.50057,24.5916
10.55,22.6649
15.919,19.2765
20.2614,14.6449
23.2971,9.06889
24.8303,2.90797
24.7621,-3.4405
23.097,-9.56709
19.9423,-15.0767
15.5014,-19.6139
10.0609,-22.8862
3.97145,-24.6825
-2.37409,-24.887
-8.56652,-23.4865
-14.2065,-20.5712
-18.9302,-16.3293
-22.4331,-11.0343
-24.4892,-5.02762
-24.966,1.30329
-23.8327,7.55015
-21.1623,13.3101
-17.1271,18.2116
-11.9873,21.9386
-6.0745,24.2508
0.230094,24.9989
6.51985,24.1349
12.3891,21.7143
17.4594,17.8933
21.4037,12.9183
23.9676,7.11019
24.9858,0.843529
24.3926,-5.47753
22.2262,-11.4453
18.6264,-16.675
13.8254,-20.8293
8.13276,-23.6402
1.9156,-24.9265
-4.42511,-24.6053
-10.4804,-22.6972
-15.8598,-19.3253
-20.2164,-14.707
-23.2692,-9.14032
-24.8213,-2.98413
-24.7726,3.36452
-23.1262,9.49618
-19.9884,15.0154
-15.5615,19.5663
-10.131,22.8552
-4.04716,24.6702
2.29772,24.8942
8.49442,23.5127
14.1433,20.6147
18.88,16.3873
22.3992,11.1031
24.4737,5.10272
24.9699,-1.22669
23.8557,-7.477
21.203,-13.2451
17.1829,-18.159
12.0546,-21.9018
6.14888,-24.232
-0.153397,-24.9995
-6.44578,-24.1548
-12.3225,-21.7522
-17.4044,-17.9468
-21.3639,-12.9839
-23.9457,-7.18369
-24.9831,-0.92018
-24.4092,5.40267
-22.2612,11.3771
-18.6775,16.6178
-13.8893,20.7867
-8.20525,23.6151
-1.99206,24.9205
4.3496,24.6187
10.4107,22.7292
15.8005,19.3738
20.1712,14.769
23.241,9.21167
24.812,3.06027
24.7828,-3.2885
23.1553,-9.42519
20.0344,-14.954
15.6215,-19.5184
10.2011,-22.8241
4.12283,-24.6577
-2.22134,-24.9011
-8.42225,-23.5386
-14.08,-20.658
-18.8297,-16.4452
-22.365,-11.1717
-24.4579,-5.17778
-24.9735,1.15008
-23.8785,7.40377
-21.2435,13.18
-17.2385,18.1062
-12.1217,21.8647
-6.22319,24.2131
0.0766989,24.9999
6.37164,24.1744
12.2557,21.7899
17.3493,18.0001
21.324,13.0494
23.9235,7.25712
24.9801,0.996823
24.4257,-5.32776
22.296,-11.3087
18.7284,-16.5604
13.953,-20.744
8.27766,-23.5898
2.06851,-24.9143
-4.27405,-24.6319
-10.341,-22.761
-15.741,-19.4222
-20.1258,-14.8308
-23.2127,-9.28293
-24.8025,-3.13637
-24.7927,3.21245
-23.1841,9.3541
-20.0802,14.8925
-15.6813,19.4704
-10.2711,22.7927
-4.19846,24.6449
2.14493,24.9078
8.34999,23.5643
14.0165,20.7011
18.7791,16.5029
22.3306,11.2403
24.4419,5.2528
24.9769,-1.07346
23.9011,-7.33048
21.2839,-13.1147
17.294,-18.0532
12.1888,-21.8274
6.29745,-24.1938
-3.52552e-08,-25
-6.29745,-24.1938
-12.1888,-21.8274
-17.294,-18.0532
-21.2839,-13.1147
-23.9011,-7.33048
-24.9769,-1.07346
-24.4419,5.2528
-22.3306,11.2403
-18.7791,16.5029
-14.0165,20.7011
-8.34999,23.5643
-2.14493,24.9078
4.19846,24.6449
10.2711,22.7927
15.6813,19.4704
20.0802,14.8925
23.1841,9.3541
24.7927,3.21245
24.8025,-3.13637
23.2127,-9.28293
20.1258,-14.8308
15.741,-19.4222
10.341,-22.761
4.27405,-24.6319
-2.06851,-24.9143
-8.27766,-23.5898
-13.953,-20.744
-18.7284,-16.5604
-22.296,-11.3087
-24.4257,-5.32776
-24.9801,0.996823
-23.9235,7.25712
-21.324,13.0494
-17.3493,18.0001
-12.2557,21.7899
-6.37164,24.1744
-0.0766988,24.9999
6.22319,24.2131
12.1217,21.8647
17.2385,18.1062
21.2435,13.18
23.8785,7.40377
24.9735,1.15008
24.4579,-5.17778
22.365,-11.1717
18.8297,-16.4452
14.08,-20.658
8.42225,-23.5386
2.22134,-24.9011
-4.12283,-24.6577
-10.2011,-22.8241
-15.6215,-19.5184
-20.0344,-14.954
-23.1553,-9.42519
-24.7828,-3.2885
-24.812,3.06027
-23.241,9.21167
-20.1712,14.769
-15.8005,19.3738
-10.4107,22.7292
-4.3496,24.6187
1.99206,24.9205
8.20525,23.6151
13.8893,20.7867
18.6775,16.6178
22.2612,11.3771
24.4092,5.40267
24.9831,-0.920181
23.9457,-7.18369
21.3639,-12.9839
17.4044,-17.9468
12.3225,-21.7522
6.44578,-24.1548
0.153397,-24.9995
-6.14888,-24.232
-12.0546,-21.9018
-17.1829,-18.159
-21.203,-13.2451
-23.8557,-7.477
-24.9699,-1.22669
-24.4737,5.10272
-22.3992,11.1031
-18.88,16.3873
-14.1433,20.6147
-8.49442,23.5127
-2.29772,24.8942
4.04716,24.6702
10.131,22.8552
15.5615,19.5663
19.9884,15.0154
23.1262,9.49618
24.7726,3.36452
24.8213,-2.98413
23.2692,-9.14032
20.2164,-14.707
15.8598,-19.3253
10.4804,-22.6972
4.42511,-24.6053
-1.9156,-24.9265
-8.13276,-23.6402
-13.8254,-20.8293
-18.6264,-16.675
-22.2262,-11.4453
-24.3926,-5.47753
-24.9858,0.843529
-23.9676,7.11019
-21.4037,12.9183
-17.4594,17.8933
-12.3891,21.7143
-6.51985,24.1349
-0.230094,24.9989
6.0745,24.2508
11.9873,21.9386
17.1271,18.2116
21.1623,13.3101
23.8327,7.55015
24.966,1.30329
24.4892,-5.02762
22.4331,-11.0343
18.9302,-16.3293
14.2065,-20.5712
8.56652,-23.4865
2.37409,-24.887
-3.97145,-24.6825
-10.0609,-22.8862
-15.5014,-19.6139
-19.9423,-15.0767
-23.097,-9.56709
-24.7621,-3.4405
-24.8303,2.90797
-23.2971,9.06889
-20.2614,14.6449
-15.919,19.2765
-10.55,22.6649
-4.50057,24.5916
1.83911,24.9323
8.06019,23.665
13.7614,20.8716
18.5752,16.7321
22.191,11.5135
24.3756,5.55234
24.9882,-0.76687
23.9893,-7.03662
21.4432,-12.8526
17.5142,-17.8396
12.4557,-21.6762
6.59387,-24.1147
0.306788,-24.9981
-6.00008,-24.2693
-11.92,-21.9753
-17.0711,-18.2641
-21.1213,-13.3749
-23.8094,-7.62323
-24.9619,-1.37988
-24.5046,4.95246
-22.4669,10.9654
-18.9802,16.2712
-14.2695,20.5276
-8.63853,23.4601
-2.45043,24.8796
3.89571,24.6946
9.99061,22.917
15.4412,19.6614
19.8959,15.1378
23.0675,9.6379
24.7515,3.51646
24.8391,-2.83177
23.3248,-8.99738
20.3063,-14.5827
15.9781,-19.2276
10.6195,-22.6324
4.576,-24.5776
-1.76261,-24.9378
-7.98755,-23.6896
-13.6974,-20.9137
-18.5238,-16.789
-22.1556,-11.5815
-24.3585,-5.6271
-24.9905,0.690204
-24.0108,6.96299
-21.4825,12.7867
-17.5689,17.7858
-12.5221,21.6378
-6.66782,24.0944
-0.38348,24.9971
5.92559,24.2876
11.8525,22.0118
17.015,18.3164
21.0802,13.4397
23.7859,7.69624
24.9575,1.45646
24.5196,-4.87726
22.5004,-10.8964
19.0301,-16.2129
14.3324,-20.4837
8.71047,-23.4335
2.52675,-24.872
-3.81993,-24.7064
-9.92025,-22.9475
-15.3808,-19.7087
-19.8494,-15.1987
-23.0379,-9.70863
-24.7406,-3.59238
-24.8477,2.75556
-23.3523,8.92577
-20.3509,14.5203
-16.037,19.1785
-10.6889,22.5997
-4.65138,24.5635
1.6861,24.9431
7.91483,23.714
13.6331,20.9556
18.4722,16.8457
22.1199,11.6494
24.3411,5.7018
24.9925,-0.613531
24.032,-6.8893
21.5217,-12.7208
17.6234,-17.7318
12.5885,-21.5993
6.74171,-24.0738
0.460168,-24.9958
-5.85105,-24.3057
-11.7849,-22.048
-16.9588,-18.3685
-21.0389,-13.5043
-23.7622,-7.76918
-24.953,-1.53302
-24.5345,4.80201
-22.5337,10.8273
-19.0797,16.1544
-14.3952,20.4396
-8.78232,23.4066
-2.60304,24.8641
3.74411,24.718
9.8498,22.9778
15.3203,19.7558
19.8027,15.2596
23.008,9.77926
24.7294,3.66826
24.856,-2.67931
23.3796,-8.85409
20.3954,-14.4578
16.0958,-19.1292
10.7582,-22.5668
4.72672,-24.5491
-1.60957,-24.9481
-7.84204,-23.7382
-13.5688,-20.9973
-18.4204,-16.9023
-22.0841,-11.7172
-24.3235,-5.77645
-24.9942,0.536852
-24.053,6.81553
-21.5606,12.6547
-17.6777,17.6777
-12.6547,21.5606
-6.81553,24.053
-0.536852,24.9942
5.77645,24.3235
11.7172,22.0841
16.9023,18.4204
20.9973,13.5688
23.7382,7.84204
24.9481,1.60957
24.5491,-4.72672
22.5668,-10.7582
19.1292,-16.0958
14.4578,-20.3954
8.85409,-23.3796
2.67931,-24.856
-3.66826,-24.7294
-9.77926,-23.008
-15.2596,-19.8027
-19.7558,-15.3203
-22.9778,-9.8498
-24.718,-3.74411
-24.8641,2.60304
-23.4066,8.78232
-20.4396,14.3952
-16.1544,19.0797
-10.8273,22.5337
-4.80201,24.5345
1.53302,24.953
7.76918,23.7622
13.5043,21.0389
18.3685,16.9588
22.048,11.7849
24.3057,5.85105
24.9958,-0.460168
24.0738,-6.74171
21.5993,-12.5885
17.7318,-17.6234
12.7208,-21.5217
6.8893,-24.032
0.613531,-24.9925
-5.7018,-24.3411
-11.6494,-22.1199
-16.8457,-18.4722
-20.9556,-13.6331
-23.714,-7.91483
-24.9431,-1.6861
-24.5635,4.65138
-22.5997,10.6889
-19.1785,16.037
-14.5203,20.3509
-8.92577,23.3523
-2.75556,24.8477
3.59238,24.7406
9.70863,23.0379
15.1987,19.8494
19.7087,15.3808
22.9475,9.92025
24.7064,3.81993
24.872,-2.52675
23.4335,-8.71047
20.4837,-14.3324
16.2129,-19.0301
10.8964,-22.5004
4.87726,-24.5196
-1.45646,-24.9575
-7.69624,-23.7859
-13.4397,-21.0802
-18.3164,-17.015
-22.0118,-11.8525
-24.2876,-5.92559
-24.9971,0.38348
-24.0944,6.66782
-21.6378,12.5221
-17.7858,17.5689
-12.7867,21.4825
-6.96299,24.0108
-0.690204,24.9905
5.6271,24.3585
11.5815,22.1556
16.789,18.5238
20.9137,13.6974
23.6896,7.98755
24.9378,1.76261
24.5776,-4.576
22.6324,-10.6195
19.2276,-15.9781
14.5827,-20.3063
8.99738,-23.3248
2.83177,-24.8391
-3.51646,-24.7515
-9.6379,-23.0675
-15.1378,-19.8959
-19.6614,-15.4412
-22.917,-9.99061
-24.6946,-3.89571
-24.8796,2.45043
-23.4601,8.63853
-20.5276,14.2695
-16.2712,18.9802
-10.9654,22.4669
-4.95246,24.5046
1.37988,24.9619
7.62323,23.8094
13.3749,21.1213
18.2641,17.0711
21.9753,11.92
24.2693,6.00008
24.9981,-0.306788
24.1147,-6.59387
21.6762,-12.4557
17.8396,-17.5142
12.8526,-21.4432
7.03662,-23.9893
0.76687,-24.9882
-5.55234,-24.3756
-11.5135,-22.191
-16.7321,-18.5752
-20.8716,-13.7614
-23.665,-8.06019
-24.9323,-1.83911
-24.5916,4.50057
-22.6649,10.55
-19.2765,15.919
-14.6449,20.2614
-9.06889,23.2971
-2.90797,24.8303
3.4405,24.7621
9.56709,23.097
15.0767,19.9423
19.6139,15.5014
22.8862,10.0609
24.6825,3.97145
24.887,-2.37409
23.4865,-8.56652
20.5712,-14.2065
16.3293,-18.9302
11.0343,-22.4331
5.02762,-24.4892
-1.30329,-24.966
-7.55015,-23.8327
-13.3101,-21.1623
-18.2116,-17.1271
-21.9386,-11.9873
-24.2508,-6.0745
-24.9989,0.230094
-24.1349,6.51985
-21.7143,12.3891
-17.8933,17.4594
-12.9183,21.4037
-7.11019,23.9676
-0.843529,24.9858
5.47753,24.3926
11.4453,22.2262
16.675,18.6264
20.8293,13.8254
23.6402,8.13276
24.9265,1.9156
24.6053,-4.42511
22.6972,-10.4804
19.3253,-15.8598
14.707,-20.2164
9.14032,-23.2692
2.98413,-24.8213
-3.36452,-24.7726
-9.49618,-23.1262
-15.0154,-19.9884
-19.5663,-15.5615
-22.8552,-10.131
-24.6702,-4.04716
-24.8942,2.29772
-23.5127,8.49442
-20.6147,14.1433
-16.3873,18.88
-11.1031,22.3992
-5.10272,24.4737
1.22669,24.9699
7.477,23.8557
13.2451,21.203
18.159,17.1829
21.9018,12.0546
24.232,6.14888
24.9995,-0.153397
24.1548,-6.44578
21.7522,-12.3225
17.9468,-17.4044
12.9839,-21.3639
7.18369,-23.9457
0.920181,-24.9831
-5.40267,-24.4092
-11.3771,-22.2612
-16.6178,-18.6775
-20.7867,-13.8893
-23.6151,-8.20525
-24.9205,-1.99206
-24.6187,4.3496
-22.7292,10.4107
-19.3738,15.8005
-14.769,20.1712
-9.21167,23.241
-3.06027,24.812
3.2885,24.7828
9.42519,23.1553
14.954,20.0344
19.5184,15.6215
22.8241,10.2011
24.6577,4.12283
24.9011,-2.22134
23.5386,-8.42225
20.658,-14.08
16.4452,-18.8297
11.1717,-22.365
5.17778,-24.4579
-1.15008,-24.9735
-7.40377,-23.8785
-13.18,-21.2435
-18.1062,-17.2385
-21.8647,-12.1217
-24.2131,-6.22319
-24.9999,0.076699
-24.1744,6.37164
-21.7899,12.2557
-18.0001,17.3493
-13.0494,21.324
-7.25712,23.9235
-0.996823,24.9801
5.32776,24.4257
11.3087,22.296
16.5604,18.7284
20.744,13.953
23.5898,8.27766
24.9143,2.06851
24.6319,-4.27405
22.761,-10.341
19.4222,-15.741
14.8308,-20.1258
9.28293,-23.2127
3.13637,-24.8025
-3.21245,-24.7927
-9.3541,-23.1841
-14.8925,-20.0802
-19.4704,-15.6813
-22.7927,-10.2711
-24.6449,-4.19846
-24.9078,2.14493
-23.5643,8.34999
-20.7011,14.0165
-16.5029,18.7791
-11.2403,22.3306
-5.2528,24.4419
1.07346,24.9769
7.33048,23.9011
13.1147,21.2839
18.0532,17.294
21.8274,12.1888
24.1938,6.29745
25,-1.76276e-08
24.1938,-6.29745
21.8274,-12.1888
18.0532,-17.294
13.1147,-21.2839
7.33048,-23.9011
1.07346,-24.9769
-5.2528,-24.4419
-11.2403,-22.3306
-16.5029,-18.7791
-20.7011,-14.0165
-23.5643,-8.34999
-24.9078,-2.14493
-24.6449,4.19846
-22.7927,10.2711
-19.4704,15.6813
-14.8925,20.0802
-9.3541,23.1841
-3.21245,24.7927
3.13637,24.8025
9.28293,23.2127
14.8308,20.1258
19.4222,15.741
22.761,10.341
24.6319,4.27405
24.9143,-2.06851
23.5898,-8.27766
20.744,-13.953
16.5604,-18.7284
11.3087,-22.296
5.32776,-24.4257
-0.996823,-24.9801
-7.25712,-23.9235
-13.0494,-21.324
-18.0001,-17.3493
-21.7899,-12.2557
-24.1744,-6.37164
-24.9999,-0.0766989
-24.2131,6.22319
-21.8647,12.1217
-18.1062,17.2385
-13.18,21.2435
-7.40377,23.8785
-1.15008,24.9735
5.17778,24.4579
11.1717,22.365
16.4452,18.8297
